sim/greenmatrix_wave.vcd
$date
	Sun Jul 12 19:09:06 2026
$end
$version
	Icarus Verilog
$end
$timescale
	1ps
$end
$scope module tb_top $end
$var wire 1 ! done $end
$var wire 1 " busy $end
$var parameter 32 # N $end
$var reg 1 $ clk $end
$var reg 1 % rst $end
$var reg 1 & start $end
$scope module dut $end
$var wire 1 $ clk $end
$var wire 1 % rst $end
$var wire 1 & start $end
$var wire 1 ' enable $end
$var wire 1 ! done $end
$var wire 1 ( clear_acc $end
$var wire 1 " busy $end
$var parameter 32 ) COMPUTE_CYCLES $end
$var parameter 32 * N $end
$scope module array_inst $end
$var wire 1 $ clk $end
$var wire 1 % rst $end
$var wire 1 ' enable $end
$var wire 1 ( clear_acc $end
$var parameter 32 + N $end
$scope begin GEN_ROWS[0] $end
$var parameter 2 , row $end
$scope begin GEN_COLS[0] $end
$var wire 8 - pe_b_in [7:0] $end
$var wire 8 . pe_a_in [7:0] $end
$var parameter 2 / col $end
$scope begin GEN_A_LEFT_EDGE $end
$upscope $end
$scope begin GEN_B_TOP_EDGE $end
$upscope $end
$scope module u_pe $end
$var wire 8 0 a_in [7:0] $end
$var wire 32 1 acc_out [31:0] $end
$var wire 8 2 b_in [7:0] $end
$var wire 1 $ clk $end
$var wire 1 % rst $end
$var wire 1 ' enable $end
$var wire 1 ( clear_acc $end
$var wire 32 3 acc_feedback [31:0] $end
$var reg 8 4 a_out [7:0] $end
$var reg 8 5 b_out [7:0] $end
$scope module u_mac $end
$var wire 8 6 a [7:0] $end
$var wire 8 7 b [7:0] $end
$var wire 1 $ clk $end
$var wire 1 % rst $end
$var wire 1 ' enable $end
$var wire 1 ( clear_acc $end
$var wire 32 8 acc_in [31:0] $end
$var reg 32 9 acc_out [31:0] $end
$upscope $end
$upscope $end
$upscope $end
$scope begin GEN_COLS[1] $end
$var wire 8 : pe_b_in [7:0] $end
$var wire 8 ; pe_a_in [7:0] $end
$var parameter 2 < col $end
$scope begin GEN_A_INTERNAL $end
$upscope $end
$scope begin GEN_B_TOP_EDGE $end
$upscope $end
$scope module u_pe $end
$var wire 8 = a_in [7:0] $end
$var wire 32 > acc_out [31:0] $end
$var wire 8 ? b_in [7:0] $end
$var wire 1 $ clk $end
$var wire 1 % rst $end
$var wire 1 ' enable $end
$var wire 1 ( clear_acc $end
$var wire 32 @ acc_feedback [31:0] $end
$var reg 8 A a_out [7:0] $end
$var reg 8 B b_out [7:0] $end
$scope module u_mac $end
$var wire 8 C a [7:0] $end
$var wire 8 D b [7:0] $end
$var wire 1 $ clk $end
$var wire 1 % rst $end
$var wire 1 ' enable $end
$var wire 1 ( clear_acc $end
$var wire 32 E acc_in [31:0] $end
$var reg 32 F acc_out [31:0] $end
$upscope $end
$upscope $end
$upscope $end
$upscope $end
$scope begin GEN_ROWS[1] $end
$var parameter 2 G row $end
$scope begin GEN_COLS[0] $end
$var wire 8 H pe_b_in [7:0] $end
$var wire 8 I pe_a_in [7:0] $end
$var parameter 2 J col $end
$scope begin GEN_A_LEFT_EDGE $end
$upscope $end
$scope begin GEN_B_INTERNAL $end
$upscope $end
$scope module u_pe $end
$var wire 8 K a_in [7:0] $end
$var wire 32 L acc_out [31:0] $end
$var wire 8 M b_in [7:0] $end
$var wire 1 $ clk $end
$var wire 1 % rst $end
$var wire 1 ' enable $end
$var wire 1 ( clear_acc $end
$var wire 32 N acc_feedback [31:0] $end
$var reg 8 O a_out [7:0] $end
$var reg 8 P b_out [7:0] $end
$scope module u_mac $end
$var wire 8 Q a [7:0] $end
$var wire 8 R b [7:0] $end
$var wire 1 $ clk $end
$var wire 1 % rst $end
$var wire 1 ' enable $end
$var wire 1 ( clear_acc $end
$var wire 32 S acc_in [31:0] $end
$var reg 32 T acc_out [31:0] $end
$upscope $end
$upscope $end
$upscope $end
$scope begin GEN_COLS[1] $end
$var wire 8 U pe_b_in [7:0] $end
$var wire 8 V pe_a_in [7:0] $end
$var parameter 2 W col $end
$scope begin GEN_A_INTERNAL $end
$upscope $end
$scope begin GEN_B_INTERNAL $end
$upscope $end
$scope module u_pe $end
$var wire 8 X a_in [7:0] $end
$var wire 32 Y acc_out [31:0] $end
$var wire 8 Z b_in [7:0] $end
$var wire 1 $ clk $end
$var wire 1 % rst $end
$var wire 1 ' enable $end
$var wire 1 ( clear_acc $end
$var wire 32 [ acc_feedback [31:0] $end
$var reg 8 \ a_out [7:0] $end
$var reg 8 ] b_out [7:0] $end
$scope module u_mac $end
$var wire 8 ^ a [7:0] $end
$var wire 8 _ b [7:0] $end
$var wire 1 $ clk $end
$var wire 1 % rst $end
$var wire 1 ' enable $end
$var wire 1 ( clear_acc $end
$var wire 32 ` acc_in [31:0] $end
$var reg 32 a acc_out [31:0] $end
$upscope $end
$upscope $end
$upscope $end
$upscope $end
$upscope $end
$scope module controller_inst $end
$var wire 1 $ clk $end
$var wire 1 % rst $end
$var wire 1 & start $end
$var parameter 32 b COMPUTE_CYCLES $end
$var parameter 32 c COUNTER_WIDTH $end
$var reg 1 " busy $end
$var reg 1 ( clear_acc $end
$var reg 2 d current_state [1:0] $end
$var reg 2 e cycle_count [1:0] $end
$var reg 1 ! done $end
$var reg 1 ' enable $end
$var reg 2 f next_state [1:0] $end
$upscope $end
$scope module loader_inst $end
$var wire 1 ( clear_acc $end
$var wire 1 $ clk $end
$var wire 1 ' enable $end
$var wire 1 % rst $end
$var parameter 32 g COUNTER_WIDTH $end
$var parameter 32 h N $end
$var parameter 32 i STREAM_CYCLES $end
$var reg 2 j stream_cycle [1:0] $end
$var integer 32 k a_index [31:0] $end
$var integer 32 l b_index [31:0] $end
$var integer 32 m col [31:0] $end
$var integer 32 n row [31:0] $end
$upscope $end
$upscope $end
$upscope $end
$enddefinitions $end
$comment Show the parameter values. $end
$dumpall
b11 i
b10 h
b10 g
b10 c
b100 b
b1 W
b0 J
b1 G
b1 <
b0 /
b0 ,
b10 +
b10 *
b100 )
b10 #
$end
#0
$dumpvars
b10 n
b10 m
bx l
bx k
b0 j
b0 f
b0 e
b0 d
b0 a
b0 `
b0 _
b0 ^
b0 ]
b0 \
b0 [
b0 Z
b0 Y
b0 X
b0 V
b0 U
b0 T
b0 S
b0 R
b0 Q
b0 P
b0 O
b0 N
b0 M
b0 L
b0 K
b0 I
b0 H
b0 F
b0 E
b0 D
b0 C
b0 B
b0 A
b0 @
b0 ?
b0 >
b0 =
b0 ;
b0 :
b0 9
b0 8
b0 7
b0 6
b0 5
b0 4
b0 3
b0 2
b0 1
b0 0
b0 .
b0 -
0(
0'
0&
1%
0$
0"
0!
$end
#5000
1$
#10000
0$
#12000
0%
#15000
1$
#20000
b1 f
1&
0$
#25000
1"
1(
b10 f
b1 d
1$
#30000
b10 f
0&
0$
#35000
b101 -
b101 2
b101 7
b11111111111111111111111111111111 l
b1 .
b1 0
b1 6
b11111111111111111111111111111111 k
b10 m
b10 n
1'
1"
0(
b10 d
1$
#40000
0$
#45000
b110 :
b110 ?
b110 D
b0 l
b11 I
b11 K
b11 Q
b0 k
b111 -
b111 2
b111 7
b10 m
b10 .
b10 0
b10 6
b10 n
b101 H
b101 M
b101 R
b101 5
b1 ;
b1 =
b1 C
b1 4
b101 1
b101 3
b101 8
b101 9
b1 j
b1 e
1$
#50000
0$
#55000
b1 l
b1 k
b1000 :
b1000 ?
b1000 D
b0 -
b0 2
b0 7
b10 m
b100 I
b100 K
b100 Q
b0 .
b0 0
b0 6
b10 n
b10 e
b10 j
b10011 1
b10011 3
b10011 8
b10011 9
b111 H
b111 M
b111 R
b111 5
b10 ;
b10 =
b10 C
b10 4
b110 >
b110 @
b110 E
b110 F
b110 U
b110 Z
b110 _
b110 B
b1 A
b1111 L
b1111 N
b1111 S
b1111 T
b101 P
b11 V
b11 X
b11 ^
b11 O
1$
#60000
0$
#65000
b10 l
b10 k
b0 :
b0 ?
b0 D
b10 m
b0 I
b0 K
b0 Q
b10 n
b11 f
b110 ]
b11 \
b10010 Y
b10010 [
b10010 `
b10010 a
b111 P
b100 V
b100 X
b100 ^
b100 O
b101011 L
b101011 N
b101011 S
b101011 T
b1000 U
b1000 Z
b1000 _
b1000 B
b10 A
b10110 >
b10110 @
b10110 E
b10110 F
b0 H
b0 M
b0 R
b0 5
b0 ;
b0 =
b0 C
b0 4
b11 j
b11 e
1$
#70000
0$
#75000
1!
0"
0'
b0 f
b0 -
b0 2
b0 7
b11111111111111111111111111111111 l
b0 .
b0 0
b0 6
b11111111111111111111111111111111 k
b10 m
b10 n
b0 e
b11 d
b0 j
b0 U
b0 Z
b0 _
b0 B
b0 A
b0 P
b0 V
b0 X
b0 ^
b0 O
b110010 Y
b110010 [
b110010 `
b110010 a
b1000 ]
b100 \
1$
#80000
0$
#85000
0!
b0 d
1$
